# Rhino

v -4.159711837768555 -3.736923933029175 -17.20097160339356
v 4.090304851531982 -3.736923933029175 -17.22091102600098
v -5.535319328308106 -5.008590698242188 -5.560488700866699
v 5.522160053253174 -5.008590698242188 -5.587211608886719
v -4.103464126586914 -3.736923933029175 6.0732102394104
v 4.146553039550781 -3.736923933029175 6.053272247314453
v -5.573013782501221 -3.257400512179736e-15 -16.93142700195313
v 5.484465599060059 -6.605477595428939e-15 -16.95815086364746
v -7.630895137786865 1.482551709062953e-15 -5.554585456848145
v 7.616966724395752 -1.106083084921002e-16 -5.593114852905273
v -5.49762487411499 -6.893272709368112e-15 8.458599090576172
v 5.559854507446289 -4.734546562852431e-15 8.431876182556152
v -4.159711837768555 3.736923933029175 -17.20097160339356
v 4.090304851531982 3.736923933029175 -17.22091102600098
v -5.535319328308106 5.008590698242188 -5.560488700866699
v 5.522160053253174 5.008590698242188 -5.587211608886719
v -4.103464126586914 3.736923933029175 6.0732102394104
v 4.146553039550781 3.736923933029175 6.053272247314453
v -0.0442739948630333 -5.008590698242188 -21.17101860046387
v 0.03111477755010128 -5.008590698242188 10.02331733703613
v -0.0442739948630333 5.008590698242188 -21.17101860046387
v 0.03111477755010128 5.008590698242188 10.02331733703613
v -0.00657960819080472 -7.221325874328613 -5.573850154876709
v -0.00657960819080472 7.221325874328613 -5.573850154876709
v -6.480870723724365 -8.874244015583913e-16 -13.35612106323242
v -6.462844848632813 2.504295349121094 -5.557537078857422
v -4.84751558303833 4.372757434844971 -11.38073062896729
v -4.866363048553467 1.868461966514587 -19.17931365966797
v -5.558916091918945 2.186378717422485 -12.3684253692627
v 4.806232452392578 4.372757434844971 -11.40406131744385
v 6.448916912078857 2.504295349121094 -5.590163230895996
v 6.430890560150147 -3.358042849390124e-15 -13.388747215271
v 4.7873854637146 1.868461966514587 -19.20264434814453
v 5.51351261138916 2.186378717422485 -12.39640426635742
v -11.8149356842041 -1.391272187232971 -10.83749961853027
v -13.91374015808106 -1.391272187232971 -7.793061256408691
v -11.78203868865967 1.113023161888123 -7.79421329498291
v -10.13236045837402 0.7951064705848694 -10.45206642150879
v 10.07491779327393 0.7951064705848694 -10.46298408508301
v 11.78203773498535 1.113023161888123 -7.806944847106934
v 13.91373920440674 -1.391272187232971 -7.808096885681152
v 11.7491397857666 -1.391272187232971 -10.85023212432861
v -4.866363048553467 -1.868461966514587 -19.17931365966797
v -4.800544738769531 -1.868461966514587 8.05494499206543
v -0.05232599750161171 -2.504295349121094 -24.6163387298584
v -2.101993083953857 -4.372757434844971 -19.18599510192871
v -3.951557636260986 -2.186378717422485 -21.8978271484375
v -2.101993083953857 4.372757434844971 -19.18599510192871
v -0.05232599750161171 2.504295349121094 -24.6163387298584
v -3.951557636260986 2.186378717422485 -21.8978271484375
v 4.7873854637146 -1.868461966514587 -19.20264434814453
v 2.02301549911499 -4.372757434844971 -19.19596481323242
v 3.868147134780884 -2.186378717422485 -21.90949249267578
v 2.02301549911499 4.372757434844971 -19.19596481323242
v 3.868147134780884 2.186378717422485 -21.90949249267578
v -2.036174774169922 -4.372757434844971 8.048263549804688
v 0.03944123908877373 -2.504295349121094 13.46863746643066
v -2.38055157661438 -2.186378717422485 10.76179122924805
v -4.800544738769531 1.868461966514587 8.05494499206543
v 0.03944123908877373 2.504295349121094 13.46863746643066
v -2.036174774169922 4.372757434844971 8.048263549804688
v -2.38055157661438 2.186378717422485 10.76179122924805
v 2.088833808898926 -4.372757434844971 8.038294792175293
v 4.853203773498535 -1.868461966514587 8.031614303588867
v 2.446322441101074 -2.186378717422485 10.75012588500977
v 4.853203773498535 1.868461966514587 8.031614303588867
v 2.088833808898926 4.372757434844971 8.038294792175293
v 2.446322441101074 2.186378717422485 10.75012588500977
v 0.06144570559263229 1.985503673553467 24.6163387298584
v 0.03867326304316521 0.6716776490211487 21.17101860046387
v 6.621368885040283 0.8384659886360169 18.45250701904297
v 7.599081516265869 1.985503673553467 21.16433906555176
v -7.521735191345215 1.985503673553467 21.17770004272461
v -6.579882144927979 0.8384659886360169 18.46417236328125
v -6.579882144927979 3.710373640060425 18.46417236328125
v 0.03867326304316521 3.877161979675293 21.17101860046387
v 6.621368885040283 3.710373640060425 18.45250701904297
vt 0 0
vt 0 0
vt 0 0
vt 0 0
vt 0 0
vt 0 0
vt 0 0
vt 0 0
vt 0 0
vt 0 0
vt 0 0
vt 0 0
vt 0 0
vt 0 0
vt 0 0
vt 0 0
vt 0 0
vt 0 0
vt 0 0
vt 0 0
vt 0 0
vt 0 0
vt 0 0
vt 0 0
vt 0 0
vt 0 0
vt 0 0
vt 0 0
vt 0 0
vt 0 0
vt 0 0
vt 0 0
vt 0 0
vt 0 0
vt 0 0
vt 0 0
vt 0 0
vt 0 0
vt 0 0
vt 0 0
vt 0 0
vt 0 0
vt 0 0
vt 0 0
vt 0 0
vt 0 0
vt 0 0
vt 0 0
vt 0 0
vt 0 0
vt 0 0
vt 0 0
vt 0 0
vt 0 0
vt 0 0
vt 0 0
vt 0 0
vt 0 0
vt 0 0
vt 0 0
vt 0 0
vt 0 0
vt 0 0
vt 0 0
vt 0 0
vt 0 0
vt 0 0
vt 0 0
vt 0 0
vt 0 0
vt 0 0
vt 0 0
vt 0 0
vt 0 0
vt 0 0
vt 0 0
vt 0 0
vn -0.7477384805679321 -0.6399315595626831 -0.1771293878555298
vn 0.6620713472366333 -0.7227823138237 -0.1981091946363449
vn -0.6935732960700989 -0.7203840613365173 0.001719123334623873
vn 0.6618890166282654 -0.7494433522224426 0.01541452575474978
vn -0.5832489728927612 -0.7793403267860413 0.2290181964635849
vn 0.6534304618835449 -0.7119563221931458 0.2571902871131897
vn -0.7461176514625549 0.1005863696336746 -0.6581723690032959
vn 0.7229957580566406 -0.3122158944606781 -0.6162778735160828
vn -0.948867678642273 -0.2729005813598633 0.1586676239967346
vn 0.8650330305099487 -0.4657032489776611 0.1866501867771149
vn -0.9996803998947144 -0.007146797142922878 \
 -0.02424876391887665
vn 0.9744265675544739 0.2197524756193161 0.04692190885543823
vn -0.3949896991252899 0.9010508060455322 -0.1791383624076843
vn 0.6844993233680725 0.703396737575531 -0.1915561109781265
vn -0.4710464775562286 0.8819419741630554 0.01713390648365021
vn 0.6356660723686218 0.7719615697860718 -0.001996824750676751
vn -0.7456161975860596 0.625424861907959 0.2300004065036774
vn 0.6534304618835449 0.7119563221931458 0.2571902871131897
vn -0.0008177855634130538 -0.9463963508605957 \
 -0.3230066895484924
vn 0.09139960259199143 -0.9460676908493042 0.3108087778091431
vn 0.08542522042989731 0.9533116221427918 -0.289654016494751
vn 0.0008520585834048688 0.9357882142066956 0.3525615632534027
vn -0.1095391660928726 -0.9939823150634766 0.000541983637958765
vn -0.06271768361330032 0.9978072643280029 0.02114573121070862
vn -0.9174007177352905 -0.1741424351930618 -0.3578412234783173
vn -0.8218619823455811 0.5360313057899475 0.1929076910018921
vn -0.6273078322410584 0.766278862953186 -0.1389300972223282
vn -0.880133867263794 -0.1099285036325455 -0.4618225395679474
vn -0.7737970352172852 0.5655145645141602 -0.2853619456291199
vn 0.7126509547233582 0.6840972900390625 -0.1553690135478973
vn 0.8331401348114014 0.5202648639678955 0.1876218169927597
vn 0.6409386992454529 -0.6256939768791199 -0.4446398913860321
vn 0.8776520490646362 -0.1113971322774887 -0.4661733508110046
vn 0.7736645340919495 0.5640815496444702 -0.2885397076606751
vn -0.6219559907913208 0.08021729439496994 -0.778932511806488
vn -0.860832154750824 -0.1286734342575073 0.492352694272995
vn -0.5903897881507874 0.7981109023094177 0.1202449351549149
vn -0.4973730742931366 0.7266706228256226 -0.4738880097866058
vn 0.4964699745178223 0.7248795628547669 -0.4775638282299042
vn 0.5899708271026611 0.799030601978302 0.1161226481199265
vn 0.8600242733955383 -0.137910857796669 0.4912624657154083
vn 0.6190505623817444 0.07811414450407028 -0.7814567089080811
vn -0.9131801128387451 0.03979727998375893 -0.4056084454059601
vn -0.8082953095436096 -0.5620769858360291 0.175294354557991
vn -0.002150549320504069 -0.4725878834724426 -0.8812808990478516
vn -0.4690894782543182 -0.8535498976707459 -0.2267323881387711
vn -0.723776638507843 0.3283165991306305 -0.6069230437278748
vn -0.4690894782543182 0.8535498976707459 -0.2267323881387711
vn -0.002150549320504069 0.4725878834724426 -0.8812808990478516
vn -0.723776638507843 -0.3283165991306305 -0.6069230437278748
vn 0.9142197370529175 0.008847666904330254 -0.4051221609115601
vn 0.4679849445819855 -0.8535952568054199 -0.22883440554142
vn 0.7211984395980835 0.3282181024551392 -0.6100374460220337
vn 0.4805048704147339 0.844971239566803 -0.2348162084817886
vn 0.7211984395980835 -0.3282181024551392 -0.6100374460220337
vn -0.5187851190567017 -0.8015995025634766 0.2971535623073578
vn 0.001172619755379856 -0.8990092873573303 0.4379279613494873
vn -0.457932323217392 -0.8136124014854431 0.3582356572151184
vn -0.7896292209625244 0.6073150634765625 0.08748751133680344
vn 0.0004668922047130764 0.9851108193397522 0.1719199568033218
vn -0.4932020008563995 0.8270451426506043 0.2697186768054962
vn -0.3167186677455902 0.9348828196525574 0.1602605134248734
vn 0.5267556309700012 -0.7938468456268311 0.3038679659366608
vn 0.8584040999412537 -0.4887715876102448 0.1557072699069977
vn 0.5922788381576538 -0.7399581074714661 0.318853884935379
vn 0.8004609346389771 0.5848368406295776 0.1312560588121414
vn 0.4944999814033508 0.8270450830459595 0.2673316597938538
vn 0.4492719769477844 0.8827360272407532 0.1375930607318878
vn 0.001094043720513582 -0.08374936878681183 0.996486246585846
vn 0.0006623826338909566 -0.9429782629013062 0.3328536450862885
vn 0.6564671397209168 -0.7475855350494385 0.1008305102586746
vn 0.9400208592414856 -0.04870954900979996 0.33762127161026
vn -0.9366597533226013 -0.04873898252844811 0.3468328416347504
vn -0.7552155256271362 -0.651838481426239 0.06896460801362991
vn -0.6849035024642944 0.7190084457397461 -0.1180425137281418
vn 0.0001122097528423183 0.987123966217041 0.1599569171667099
vn 0.8801726698875427 0.4710298776626587 -0.05853987485170364
f 3/3/3 1/1/1 46/46/46
f 23/23/23 3/3/3 46/46/46
f 23/23/23 46/46/46 19/19/19
f 1/1/1 3/3/3 9/9/9
f 43/43/43 1/1/1 9/9/9
f 43/43/43 9/9/9 25/25/25
f 43/43/43 25/25/25 7/7/7
f 1/1/1 43/43/43 47/47/47 46/46/46
f 7/7/7 25/25/25 29/29/29 28/28/28
f 44/44/44 5/5/5 56/56/56 58/58/58
f 13/13/13 27/27/27 15/15/15
f 48/48/48 13/13/13 15/15/15
f 48/48/48 15/15/15 24/24/24
f 48/48/48 24/24/24 21/21/21
f 23/23/23 19/19/19 52/52/52
f 4/4/4 23/23/23 52/52/52
f 4/4/4 52/52/52 2/2/2
f 19/19/19 45/45/45 53/53/53 52/52/52
f 21/21/21 24/24/24 16/16/16
f 54/54/54 21/21/21 16/16/16
f 54/54/54 16/16/16 30/30/30
f 54/54/54 30/30/30 14/14/14
f 8/8/8 32/32/32 10/10/10
f 51/51/51 8/8/8 10/10/10
f 51/51/51 10/10/10 4/4/4
f 51/51/51 4/4/4 2/2/2
f 14/14/14 30/30/30 34/34/34 33/33/33
f 5/5/5 3/3/3 23/23/23
f 56/56/56 5/5/5 23/23/23
f 56/56/56 23/23/23 20/20/20
f 3/3/3 5/5/5 44/44/44
f 9/9/9 3/3/3 44/44/44
f 9/9/9 44/44/44 11/11/11
f 9/9/9 11/11/11 59/59/59
f 26/26/26 9/9/9 59/59/59
f 26/26/26 59/59/59 17/17/17
f 26/26/26 17/17/17 15/15/15
f 15/15/15 17/17/17 61/61/61
f 24/24/24 15/15/15 61/61/61
f 24/24/24 61/61/61 22/22/22
f 20/20/20 23/23/23 4/4/4
f 63/63/63 20/20/20 4/4/4
f 63/63/63 4/4/4 6/6/6
f 24/24/24 22/22/22 67/67/67
f 16/16/16 24/24/24 67/67/67
f 16/16/16 67/67/67 18/18/18
f 10/10/10 12/12/12 64/64/64
f 4/4/4 10/10/10 64/64/64
f 4/4/4 64/64/64 6/6/6
f 16/16/16 18/18/18 66/66/66
f 31/31/31 16/16/16 66/66/66
f 31/31/31 66/66/66 12/12/12
f 31/31/31 12/12/12 10/10/10
f 17/17/17 59/59/59 62/62/62 61/61/61
f 69/69/69 70/70/70 71/71/71 72/72/72
f 22/22/22 60/60/60 68/68/68 67/67/67
f 35/35/35 36/36/36 37/37/37 38/38/38
f 28/28/28 29/29/29 27/27/27 13/13/13
f 29/29/29 26/26/26 15/15/15 27/27/27
f 30/30/30 16/16/16 31/31/31 34/34/34
f 33/33/33 34/34/34 32/32/32 8/8/8
f 39/39/39 40/40/40 41/41/41 42/42/42
f 25/25/25 9/9/9 36/36/36 35/35/35
f 9/9/9 26/26/26 37/37/37 36/36/36
f 26/26/26 29/29/29 38/38/38 37/37/37
f 29/29/29 25/25/25 35/35/35 38/38/38
f 34/34/34 31/31/31 40/40/40 39/39/39
f 31/31/31 10/10/10 41/41/41 40/40/40
f 10/10/10 32/32/32 42/42/42 41/41/41
f 32/32/32 34/34/34 39/39/39 42/42/42
f 73/73/73 74/74/74 70/70/70 69/69/69
f 46/46/46 47/47/47 45/45/45 19/19/19
f 28/28/28 13/13/13 48/48/48 50/50/50
f 50/50/50 48/48/48 21/21/21 49/49/49
f 52/52/52 53/53/53 51/51/51 2/2/2
f 49/49/49 21/21/21 54/54/54 55/55/55
f 55/55/55 54/54/54 14/14/14 33/33/33
f 58/58/58 56/56/56 20/20/20 57/57/57
f 61/61/61 62/62/62 60/60/60 22/22/22
f 75/75/75 73/73/73 69/69/69 76/76/76
f 57/57/57 20/20/20 63/63/63 65/65/65
f 65/65/65 63/63/63 6/6/6 64/64/64
f 76/76/76 69/69/69 72/72/72 77/77/77
f 67/67/67 68/68/68 66/66/66 18/18/18
f 57/57/57 65/65/65 71/71/71 70/70/70
f 58/58/58 57/57/57 70/70/70 74/74/74
f 60/60/60 62/62/62 75/75/75 76/76/76
f 68/68/68 60/60/60 76/76/76 77/77/77
f 33/33/33 28/28/28 50/50/50 55/55/55
f 50/50/50 49/49/49 55/55/55
f 53/53/53 45/45/45 47/47/47
f 51/51/51 53/53/53 47/47/47 43/43/43
f 8/8/8 51/51/51 43/43/43 7/7/7
f 33/33/33 8/8/8 7/7/7 28/28/28
f 77/77/77 12/12/12 66/66/66 68/68/68
f 77/77/77 64/64/64 12/12/12
f 72/72/72 71/71/71 77/77/77
f 77/77/77 71/71/71 65/65/65 64/64/64
f 59/59/59 75/75/75 62/62/62
f 59/59/59 11/11/11 75/75/75
f 75/75/75 74/74/74 73/73/73
f 11/11/11 74/74/74 75/75/75
f 11/11/11 44/44/44 74/74/74
f 44/44/44 58/58/58 74/74/74
